current directory: /home/projetos/boot_api/path/ruby/2.5.0/gems/byebug-10.0.2/ext/byebug
/home/vagrant/.rvm/rubies/ruby-2.5.0/bin/ruby -r ./siteconf20180504-3435-1lebbw0.rb extconf.rb
creating Makefile

current directory: /home/projetos/boot_api/path/ruby/2.5.0/gems/byebug-10.0.2/ext/byebug
make "DESTDIR=" clean
make: Warning: File `Makefile' has modification time 0.52 s in the future
make: warning:  Clock skew detected.  Your build may be incomplete.

current directory: /home/projetos/boot_api/path/ruby/2.5.0/gems/byebug-10.0.2/ext/byebug
make "DESTDIR="
make: Warning: File `Makefile' has modification time 0.51 s in the future
compiling breakpoint.c
compiling byebug.c
compiling context.c
compiling locker.c
compiling threads.c
linking shared-object byebug/byebug.so
make: warning:  Clock skew detected.  Your build may be incomplete.

current directory: /home/projetos/boot_api/path/ruby/2.5.0/gems/byebug-10.0.2/ext/byebug
make "DESTDIR=" install
make: Warning: File `byebug.so' has modification time 0.53 s in the future
/usr/bin/install -m 0755 byebug.so ./.gem.20180504-3435-tl62yt/byebug
make: warning:  Clock skew detected.  Your build may be incomplete.
