current directory: /home/projetos/boot_api/path/ruby/2.5.0/gems/websocket-driver-0.6.5/ext/websocket-driver
/home/vagrant/.rvm/rubies/ruby-2.5.0/bin/ruby -r ./siteconf20180504-3435-2qj77q.rb extconf.rb
creating Makefile

current directory: /home/projetos/boot_api/path/ruby/2.5.0/gems/websocket-driver-0.6.5/ext/websocket-driver
make "DESTDIR=" clean
make: Warning: File `Makefile' has modification time 0.53 s in the future
make: warning:  Clock skew detected.  Your build may be incomplete.

current directory: /home/projetos/boot_api/path/ruby/2.5.0/gems/websocket-driver-0.6.5/ext/websocket-driver
make "DESTDIR="
make: Warning: File `Makefile' has modification time 0.52 s in the future
compiling websocket_mask.c
linking shared-object websocket_mask.so
make: warning:  Clock skew detected.  Your build may be incomplete.

current directory: /home/projetos/boot_api/path/ruby/2.5.0/gems/websocket-driver-0.6.5/ext/websocket-driver
make "DESTDIR=" install
make: Warning: File `Makefile' has modification time 0.35 s in the future
/usr/bin/install -m 0755 websocket_mask.so ./.gem.20180504-3435-1lbng07
make: warning:  Clock skew detected.  Your build may be incomplete.
